^C:\USERS\JAVAJUMPER\SOURCE\REPOS\LAB10\TASK3\X64\DEBUG\TASK3.OBJ
C:\USERS\JAVAJUMPER\SOURCE\REPOS\LAB10\X64\DEBUG\TASKS1.EXE
C:\USERS\JAVAJUMPER\SOURCE\REPOS\LAB10\TASK3\X64\DEBUG\TASKS1.ILK
C:\USERS\JAVAJUMPER\SOURCE\REPOS\LAB10\X64\DEBUG\TASKS1.PDB
