^C:\USERS\JAVAJUMPER\SOURCE\REPOS\LAB10\TASK 2\X64\DEBUG\TASK 2.OBJ
C:\USERS\JAVAJUMPER\SOURCE\REPOS\LAB10\X64\DEBUG\TASK 2.EXE
C:\USERS\JAVAJUMPER\SOURCE\REPOS\LAB10\TASK 2\X64\DEBUG\TASK 2.ILK
C:\USERS\JAVAJUMPER\SOURCE\REPOS\LAB10\X64\DEBUG\TASK 2.PDB
